…
## Why samplyr?

`samplyr` is built around a simple idea: sampling code should read like
its English description.

``` r
library(samplyr)
data(bfa_eas)

# "Stratify by region, proportionally allocate 500 samples, execute"
sampling_design() |>
  stratify_by(region, alloc = "proportional") |>
  draw(n = 500) |>
  execute(bfa_eas, seed = 1)
#> # A tbl_sample: 500 × 18
#> # Sampling:     1 stage | 500/44,570 units
#> # Weights:      89.14 [87.47, 90.09]
#>    ea_id region           province commune urban_rural population
#>  * <int> <fct>            <fct>    <fct>   <fct>            <int>
#>  1  9648 Boucle du Mouho… Banwa    Sanaba  Rural              279
#>  2 11547 Boucle du Mouho… Sourou   Toéni   Rural               49
#>  3 41824 Boucle du Mouho… Kossi    Dokui   Rural               75
#>  4 11012 Boucle du Mouho… Banwa    Tansila Rural              592
#>  5 32308 Boucle du Mouho… Sourou   Lanfiè… Rural               57
#>  6  7017 Boucle du Mouho… Kossi    Madouba Rural              599
#>  7 36700 Boucle du Mouho… Bale     Fara    Rural              402
#>  8 11611 Boucle du Mouho… Nayala   Yaba    Rural              111
#>  9  8342 Boucle du Mouho… Mouhoun  Ouarko… Rural               94
#> 10 11626 Boucle du Mouho… Nayala   Yaba    Rural               56
#> # ℹ 490 more rows
#> # ℹ 12 more variables: households <int>, area_km2 <dbl>,
#> #   pop_density <dbl>, longitude <dbl>, latitude <dbl>,
#> #   remoteness <fct>, fieldwork_cost <int>, .weight <dbl>,
#> #   .sample_id <int>, .stage <int>, .weight_1 <dbl>,
#> #   .fpc_1 <int>
```
…
`stratify_by()` and `cluster_by()` take bare column names. The design is
stored as a specification and resolved only when a frame is available
(`validate_frame()`, `execute()`, `as_svydesign()`), so design
specification stays separate from execution.

``` r
design <- sampling_design() |>
  stratify_by(region, alloc = "proportional") |>
  cluster_by(ea_id) |>
  draw(n = 300)

sample <- execute(design, bfa_eas, seed = 2)
sample
#> # A tbl_sample: 300 × 18
#> # Weights:      148.57 [146.5, 151.22]
#>    ea_id region           province commune urban_rural population
#>  * <int> <fct>            <fct>    <fct>   <fct>            <int>
#>  1 29513 Boucle du Mouho… Bale     Bana    Rural              181
#>  2 29527 Boucle du Mouho… Bale     Bana    Rural              193
#>  3 36703 Boucle du Mouho… Bale     Fara    Rural              975
#>  4  8455 Boucle du Mouho… Bale     Ouri    Rural               57
#>  5  8580 Boucle du Mouho… Bale     Pâ      Rural              171
#>  6 11739 Boucle du Mouho… Bale     Yaho    Rural              509
#>  7 11746 Boucle du Mouho… Bale     Yaho    Rural               98
#>  8  6291 Boucle du Mouho… Banwa    Kouka   Rural              563
#>  9 34031 Boucle du Mouho… Banwa    Sami    Rural               41
#> 10 34058 Boucle du Mouho… Banwa    Sami    Rural              516
#> # ℹ 290 more rows
#> # ℹ 12 more variables: households <int>, area_km2 <dbl>,
#> #   pop_density <dbl>, longitude <dbl>, latitude <dbl>,
#> #   remoteness <fct>, fieldwork_cost <int>, .weight <dbl>,
#> #   .sample_id <int>, .stage <int>, .weight_1 <dbl>,
#> #   .fpc_1 <int>
```

## Quick Start

``` r
library(samplyr)
data(bfa_eas)

# Simple random sample
srs_smpl <- sampling_design() |>
  draw(n = 100) |>
  execute(bfa_eas, seed = 321)

srs_smpl
#> # A tbl_sample: 100 × 18
#> # Sampling:     1 stage | 100/44,570 units
#> # Weights:      445.7 [445.7, 445.7]
#>    ea_id region           province commune urban_rural population
#>  * <int> <fct>            <fct>    <fct>   <fct>            <int>
#>  1  5168 Centre-Nord      Sanmate… Kaya    Urban              794
#>  2 11281 Centre-Sud       Nahouri  Tiébélé Rural              123
#>  3 30149 Centre-Ouest     Sanguie  Dassa   Rural              813
#>  4 13590 Est              Gnagna   Koala   Rural              353
#>  5 26045 Boucle du Mouho… Mouhoun  Dédoug… Rural              378
#>  6 44140 Centre-Est       Koulpel… Soudou… Rural              258
#>  7 30931 Est              Komandj… Gayéri  Rural              150
#>  8 10745 Sahel            Yagha    Tankou… Rural              312
#>  9 13990 Hauts-Bassins    Kenedou… Kourou… Rural              406
#> 10 27757 Est              Tapoa    Partia… Rural              571
#> # ℹ 90 more rows
#> # ℹ 12 more variables: households <int>, area_km2 <dbl>,
#> #   pop_density <dbl>, longitude <dbl>, latitude <dbl>,
#> #   remoteness <fct>, fieldwork_cost <int>, .weight <dbl>,
#> #   .sample_id <int>, .stage <int>, .weight_1 <dbl>,
#> #   .fpc_1 <int>

# Stratified proportional allocation
strata_smpl <- sampling_design() |>
  stratify_by(region, alloc = "proportional") |>
  draw(n = 300) |>
  execute(bfa_eas, seed = 12)

strata_smpl
#> # A tbl_sample: 300 × 18
#> # Sampling:     1 stage | 300/44,570 units
#> # Weights:      148.57 [146.5, 151.22]
#>    ea_id region           province commune urban_rural population
#>  * <int> <fct>            <fct>    <fct>   <fct>            <int>
#>  1 31987 Boucle du Mouho… Sourou   Kiemba… Rural               24
#>  2  4968 Boucle du Mouho… Sourou   Kassoum Rural              303
#>  3  4958 Boucle du Mouho… Sourou   Kassoum Rural              142
#>  4 23903 Boucle du Mouho… Banwa    Solenzo Rural               94
#>  5 25996 Boucle du Mouho… Mouhoun  Dédoug… Rural              538
#>  6 21501 Boucle du Mouho… Kossi    Doumba… Rural              247
#>  7 43794 Boucle du Mouho… Mouhoun  Safané  Rural               87
#>  8  9724 Boucle du Mouho… Banwa    Sanaba  Rural               51
#>  9 10979 Boucle du Mouho… Banwa    Tansila Rural               71
#> 10  8893 Boucle du Mouho… Bale     Pompoï  Rural              522
#> # ℹ 290 more rows
#> # ℹ 12 more variables: households <int>, area_km2 <dbl>,
#> #   pop_density <dbl>, longitude <dbl>, latitude <dbl>,
#> #   remoteness <fct>, fieldwork_cost <int>, .weight <dbl>,
#> #   .sample_id <int>, .stage <int>, .weight_1 <dbl>,
#> #   .fpc_1 <int>

# PPS cluster sampling
cluster_smpl <- sampling_design() |>
  cluster_by(ea_id) |>
  draw(n = 50, method = "pps_brewer", mos = households) |>
  execute(bfa_eas, seed = 123)

cluster_smpl
#> # A tbl_sample: 50 × 19
#> # Weights:      779.3 [188.64, 2999.41]
#>    ea_id region           province commune urban_rural population
#>  * <int> <fct>            <fct>    <fct>   <fct>            <int>
#>  1 23944 Boucle du Mouho… Banwa    Solenzo Rural              758
#>  2 33134 Boucle du Mouho… Kossi    Nouna   Rural             1116
#>  3 10578 Boucle du Mouho… Kossi    Sônô    Rural              326
#>  4 23289 Cascades         Comoe    Ouô     Rural              534
#>  5 15240 Centre           Kadiogo  Ouagad… Urban              614
#>  6 15327 Centre           Kadiogo  Ouagad… Urban             1061
#>  7 15429 Centre           Kadiogo  Ouagad… Urban              667
#>  8 15550 Centre           Kadiogo  Ouagad… Urban              967
#>  9 17098 Centre           Kadiogo  Ouagad… Urban              844
#> 10 17487 Centre           Kadiogo  Ouagad… Urban              938
#> # ℹ 40 more rows
#> # ℹ 13 more variables: households <int>, area_km2 <dbl>,
#> #   pop_density <dbl>, longitude <dbl>, latitude <dbl>,
#> #   remoteness <fct>, fieldwork_cost <int>, .weight <dbl>,
#> #   .sample_id <int>, .stage <int>, .weight_1 <dbl>,
#> #   .fpc_1 <int>, .certainty_1 <lgl>
```
…
# Add district-level measure of size
zwe_frame <- zwe_eas |>
  mutate(district_hh = sum(households), .by = district)

# Two-stage design: 10 districts, 5 EAs per district
sample <- sampling_design() |>
  add_stage(label = "Districts") |>
    cluster_by(district) |>
    draw(n = 10, method = "pps_brewer", mos = district_hh) |>
  add_stage(label = "EAs") |>
    draw(n = 5) |>
  execute(zwe_frame, seed = 12345)

sample
#> # A tbl_sample: 50 × 21
#> # Sampling:     2 stages | 50/107,250 units
#> # Weights:      2514.13 [784.4, 4121.21]
#>    ea_id province   district    ward_pcode urban_rural population
#>  * <int> <fct>      <fct>       <chr>      <fct>            <int>
#>  1 88821 Harare     Harare      ZW192102   Urban              197
#>  2 87420 Harare     Harare      ZW192116   Urban             1378
#>  3 86941 Harare     Harare      ZW192108   Urban              103
#>  4 88444 Harare     Harare      ZW192129   Urban              538
#>  5 34696 Harare     Harare      ZW192120   Urban              452
#>  6 14864 Manicaland Chimanimani ZW110201   Rural              111
#>  7 59668 Manicaland Chimanimani ZW110204   Rural              142
#>  8 60166 Manicaland Chimanimani ZW110203   Rural              114
#>  9 60082 Manicaland Chimanimani ZW110216   Rural               73
#> 10 58991 Manicaland Chimanimani ZW110219   Rural               73
#> # ℹ 40 more rows
#> # ℹ 15 more variables: households <int>, buildings <int>,
#> #   women_15_49 <int>, men_15_49 <int>, children_under5 <int>,
#> #   area_km2 <dbl>, district_hh <int>, .weight <dbl>,
#> #   .sample_id <int>, .stage <int>, .weight_2 <dbl>,
#> #   .fpc_2 <int>, .weight_1 <dbl>, .fpc_1 <int>,
#> #   .certainty_1 <lgl>
```
…
# ... fieldwork ...
# list all households in selected EAs
selected_eas_list <- selected_eas |>
  slice(rep(seq_len(n()), households)) |>
  mutate(hh_id = row_number())

# Execute stage 2
final_sample <- selected_eas |>
  execute(selected_eas_list, seed = 2)
final_sample
#> # A tbl_sample: 100 × 21
#> # Sampling:     2 stages | 100/107,250 units
#> # Weights:      38147.25 [35714.84, 40579.66]
#>    ea_id province district ward_pcode urban_rural population
#>  * <int> <fct>    <fct>    <chr>      <fct>            <int>
#>  1 47209 Bulawayo Bulawayo ZW102127   Urban              462
#>  2 47209 Bulawayo Bulawayo ZW102127   Urban              462
#>  3 47209 Bulawayo Bulawayo ZW102127   Urban              462
#>  4 47209 Bulawayo Bulawayo ZW102127   Urban              462
#>  5 47209 Bulawayo Bulawayo ZW102127   Urban              462
#>  6 35161 Harare   Harare   ZW192109   Urban              140
#>  7 35161 Harare   Harare   ZW192109   Urban              140
#>  8 35161 Harare   Harare   ZW192109   Urban              140
#>  9 35161 Harare   Harare   ZW192109   Urban              140
#> 10 35161 Harare   Harare   ZW192109   Urban              140
#> # ℹ 90 more rows
#> # ℹ 15 more variables: households <int>, buildings <int>,
#> #   women_15_49 <int>, men_15_49 <int>, children_under5 <int>,
#> #   area_km2 <dbl>, hh_id <int>, .weight <dbl>,
#> #   .sample_id <int>, .stage <int>, .weight_2 <dbl>,
#> #   .fpc_2 <int>, .weight_1 <dbl>, .fpc_1 <int>,
#> #   .certainty_1 <lgl>
```
…
### Sample Size Bounds

Use `min_n` and `max_n` in `draw()` to constrain stratum sample sizes
when using allocation methods:

``` r
data(bfa_eas_variance)

# Ensure at least 2 per stratum (minimum for variance estimation)
sampling_design() |>
  stratify_by(region, alloc = "neyman", variance = bfa_eas_variance) |>
  draw(n = 300, min_n = 2) |>
  execute(bfa_eas, seed = 321)
#> # A tbl_sample: 300 × 18
#> # Sampling:     1 stage | 300/44,570 units
#> # Weights:      148.57 [142.32, 162]
#>    ea_id region           province commune urban_rural population
#>  * <int> <fct>            <fct>    <fct>   <fct>            <int>
#>  1 11643 Boucle du Mouho… Nayala   Yaba    Rural              396
#>  2 36763 Boucle du Mouho… Bale     Fara    Rural               79
#>  3  9648 Boucle du Mouho… Banwa    Sanaba  Rural              279
#>  4 10555 Boucle du Mouho… Kossi    Sônô    Rural              164
#>  5 34926 Boucle du Mouho… Sourou   Tougan  Rural             1239
#>  6 44501 Boucle du Mouho… Mouhoun  Tchéri… Rural              221
#>  7  9702 Boucle du Mouho… Banwa    Sanaba  Rural              260
#>  8 26045 Boucle du Mouho… Mouhoun  Dédoug… Rural              378
#>  9  8605 Boucle du Mouho… Bale     Pâ      Rural              283
#> 10 21078 Boucle du Mouho… Kossi    Bouras… Rural               93
#> # ℹ 290 more rows
#> # ℹ 12 more variables: households <int>, area_km2 <dbl>,
#> #   pop_density <dbl>, longitude <dbl>, latitude <dbl>,
#> #   remoteness <fct>, fieldwork_cost <int>, .weight <dbl>,
#> #   .sample_id <int>, .stage <int>, .weight_1 <dbl>,
#> #   .fpc_1 <int>
```
…
``` r
# Neyman allocation
data(bfa_eas_variance)

sample <- sampling_design() |>
  stratify_by(region, alloc = "neyman", variance = bfa_eas_variance) |>
  draw(n = 300) |>
  execute(bfa_eas, seed = 4321)

sample
#> # A tbl_sample: 300 × 18
#> # Sampling:     1 stage | 300/44,570 units
#> # Weights:      148.57 [142.32, 162]
#>    ea_id region           province commune urban_rural population
#>  * <int> <fct>            <fct>    <fct>   <fct>            <int>
#>  1 21517 Boucle du Mouho… Kossi    Doumba… Rural              354
#>  2 33112 Boucle du Mouho… Kossi    Nouna   Rural               28
#>  3 25963 Boucle du Mouho… Mouhoun  Dédoug… Rural              416
#>  4  6354 Boucle du Mouho… Banwa    Kouka   Rural              296
#>  5 11787 Boucle du Mouho… Bale     Bagassi Rural              874
#>  6  8233 Boucle du Mouho… Mouhoun  Ouarko… Rural              183
#>  7  9925 Boucle du Mouho… Bale     Siby    Rural              204
#>  8 34812 Boucle du Mouho… Sourou   Tougan  Rural             1072
#>  9 11441 Boucle du Mouho… Sourou   Toéni   Rural               64
#> 10  8883 Boucle du Mouho… Bale     Pompoï  Rural              192
#> # ℹ 290 more rows
#> # ℹ 12 more variables: households <int>, area_km2 <dbl>,
#> #   pop_density <dbl>, longitude <dbl>, latitude <dbl>,
#> #   remoteness <fct>, fieldwork_cost <int>, .weight <dbl>,
#> #   .sample_id <int>, .stage <int>, .weight_1 <dbl>,
#> #   .fpc_1 <int>
```
…
The cube method (Deville & Tillé 2004) produces samples whose
Horvitz-Thompson estimates of auxiliary totals match the population
totals, improving precision:

``` r
# Balanced sample using population and area as auxiliary variables
balanced_smpl <- sampling_design() |>
  stratify_by(region, alloc = "proportional") |>
  draw(n = 300, method = "cube", mos = households,
       aux = c(population, area_km2)) |>
  execute(bfa_eas, seed = 24)

balanced_smpl
#> # A tbl_sample: 300 × 18
#> # Sampling:     1 stage | 300/44,570 units
#> # Weights:      153.12 [12.35, 2866.07]
#>    ea_id region           province commune urban_rural population
#>  * <int> <fct>            <fct>    <fct>   <fct>            <int>
#>  1  1205 Boucle du Mouho… Bale     Boromo  Rural             4324
#>  2  1207 Boucle du Mouho… Bale     Boromo  Rural             1465
#>  3  8426 Boucle du Mouho… Bale     Ouri    Rural              394
#>  4  9923 Boucle du Mouho… Bale     Siby    Rural               54
#>  5 39991 Boucle du Mouho… Banwa    Balavé  Rural              865
#>  6  6334 Boucle du Mouho… Banwa    Kouka   Rural              785
#>  7 23749 Boucle du Mouho… Banwa    Solenzo Rural              235
#>  8 23855 Boucle du Mouho… Banwa    Solenzo Rural              831
#>  9 24031 Boucle du Mouho… Banwa    Solenzo Rural              227
#> 10 10952 Boucle du Mouho… Banwa    Tansila Rural              434
#> # ℹ 290 more rows
#> # ℹ 12 more variables: households <int>, area_km2 <dbl>,
#> #   pop_density <dbl>, longitude <dbl>, latitude <dbl>,
#> #   remoteness <fct>, fieldwork_cost <int>, .weight <dbl>,
#> #   .sample_id <int>, .stage <int>, .weight_1 <dbl>,
#> #   .fpc_1 <dbl>
```
…
# Use it like any built-in method
sample_tille <- sampling_design() |>
  stratify_by(region, alloc = "proportional") |>
  draw(n = 300, method = "pps_tille", mos = households) |>
  execute(bfa_eas, seed = 1)

sample_tille
#> # A tbl_sample: 300 × 19
#> # Sampling:     1 stage | 300/44,570 units
#> # Weights:      130.21 [14.77, 1717.89]
#>    ea_id region           province commune urban_rural population
#>  * <int> <fct>            <fct>    <fct>   <fct>            <int>
#>  1 29508 Boucle du Mouho… Bale     Bana    Rural              998
#>  2  1198 Boucle du Mouho… Bale     Boromo  Rural              924
#>  3 36745 Boucle du Mouho… Bale     Fara    Rural             1839
#>  4  8606 Boucle du Mouho… Bale     Pâ      Rural              256
#>  5  9052 Boucle du Mouho… Bale     Poura   Urban              727
#>  6 11709 Boucle du Mouho… Bale     Yaho    Rural              416
#>  7 39994 Boucle du Mouho… Banwa    Balavé  Rural              106
#>  8 40012 Boucle du Mouho… Banwa    Balavé  Rural             1312
#>  9  6311 Boucle du Mouho… Banwa    Kouka   Rural             3561
#> 10 34016 Boucle du Mouho… Banwa    Sami    Rural              593
#> # ℹ 290 more rows
#> # ℹ 13 more variables: households <int>, area_km2 <dbl>,
#> #   pop_density <dbl>, longitude <dbl>, latitude <dbl>,
#> #   remoteness <fct>, fieldwork_cost <int>, .weight <dbl>,
#> #   .sample_id <int>, .stage <int>, .weight_1 <dbl>,
#> #   .fpc_1 <int>, .certainty_1 <lgl>
…
Pipe a `tbl_sample` into `execute()` for multi-phase designs:

``` r
# Phase 1: large screening sample
phase1 <- sampling_design() |>
  draw(n = 500) |>
  execute(bfa_eas, seed = 1)

# Phase 2: subsample from phase 1
phase2 <- sampling_design() |>
  draw(n = 50) |>
  execute(phase1, seed = 2)

phase2
#> # A tbl_sample: 50 × 18
#> # Sampling:     1 stage | 50/500 units
#> # Weights:      891.4 [891.4, 891.4]
#>    ea_id region           province commune urban_rural population
#>  * <int> <fct>            <fct>    <fct>   <fct>            <int>
#>  1 33282 Boucle du Mouho… Kossi    Nouna   Rural              327
#>  2 25236 Est              Gnagna   Bilanga Rural              581
#>  3 33467 Est              Kompien… Pama    Rural               46
#>  4 19744 Centre-Est       Boulgou  Zabré   Rural              433
#>  5 16081 Centre           Kadiogo  Ouagad… Urban              830
#>  6 20688 Cascades         Comoe    Banfora Rural              823
#>  7 36869 Boucle du Mouho… Nayala   Gassan  Rural             1172
#>  8 32034 Centre-Est       Koulpel… Komin-… Rural              444
#>  9 15189 Centre           Kadiogo  Ouagad… Urban              471
#> 10 11082 Sud-Ouest        Bougour… Tianko… Rural               43
#> # ℹ 40 more rows
#> # ℹ 12 more variables: households <int>, area_km2 <dbl>,
#> #   pop_density <dbl>, longitude <dbl>, latitude <dbl>,
#> #   remoteness <fct>, fieldwork_cost <int>, .weight <dbl>,
#> #   .sample_id <int>, .stage <int>, .weight_1 <dbl>,
#> #   .fpc_1 <int>
```
…
